<?xml version="1.0" encoding="UTF-8" standalone="no"?>
<svg
   xmlns:dc="http://purl.org/dc/elements/1.1/"
   xmlns:cc="http://creativecommons.org/ns#"
   xmlns:rdf="http://www.w3.org/1999/02/22-rdf-syntax-ns#"
   xmlns:svg="http://www.w3.org/2000/svg"
   xmlns="http://www.w3.org/2000/svg"
   xmlns:sodipodi="http://sodipodi.sourceforge.net/DTD/sodipodi-0.dtd"
   xmlns:inkscape="http://www.inkscape.org/namespaces/inkscape"
   width="104.8426mm"
   height="101.79673mm"
   viewBox="0 0 104.8426 101.79673"
   version="1.1"
   id="svg8"
   inkscape:version="1.0.2 (e86c870879, 2021-01-15)"
   sodipodi:docname="qompligis_logo.svg"
   inkscape:export-filename="/home/jacky/Documents/proj/QompliGIS/QompliGIS/resources/images/qompligis_logo.png"
   inkscape:export-xdpi="96"
   inkscape:export-ydpi="96">
  <defs
     id="defs2">
    <clipPath
       clipPathUnits="userSpaceOnUse"
       id="clipPath873-3">
      <path
         style="fill:none;stroke:#000000;stroke-width:0.250333px;stroke-linecap:butt;stroke-linejoin:miter;stroke-opacity:1"
         d="m 87.855816,187.76553 -5.468601,12.83752 32.168605,2.48238 40.4253,-30.05909 -6.90388,-33.3582 -27.828,-19.36108 z"
         id="path875-6" />
    </clipPath>
    <clipPath
       clipPathUnits="userSpaceOnUse"
       id="clipPath922">
      <path
         style="fill:none;stroke:#000000;stroke-width:0.264583px;stroke-linecap:butt;stroke-linejoin:miter;stroke-opacity:1"
         d="m 139.30919,113.84176 -21.62003,23.95742 5.46381,4.83494 3.41201,5.0645 2.11949,11.70696 -0.9955,9.09311 -3.60358,6.85433 -6.63028,6.16506 -10.19308,4.48745 -12.45358,0.47405 -10.260822,-4.484 -7.832217,-8.37136 -4.285398,-14.07506 2.213684,-9.70703 6.558936,-10.45785 10.124366,-6.53529 7.823422,-0.93696 0.200242,-11.08479 -10.454653,1.56073 -7.68504,3.9798 -6.65231,5.36127 -6.950835,6.93354 -7.761568,-5.89982 -4.763902,9.36312 -2.542323,11.22994 -0.344789,11.4183 1.53339,7.69398 4.478838,9.84181 11.751278,14.8318 14.511866,8.15881 -3.993544,11.01254 c 0,0 56.007939,14.91314 73.681109,-30.88224 17.67316,-45.79538 -14.84899,-71.58906 -14.84899,-71.58906 z"
         id="path924" />
    </clipPath>
    <clipPath
       clipPathUnits="userSpaceOnUse"
       id="clipPath926">
      <path
         style="fill:none;stroke:#000000;stroke-width:0.264583px;stroke-linecap:butt;stroke-linejoin:miter;stroke-opacity:1"
         d="m 139.30919,113.84176 -21.62003,23.95742 5.46381,4.83494 3.41201,5.0645 2.11949,11.70696 -0.9955,9.09311 -3.60358,6.85433 -6.63028,6.16506 -10.19308,4.48745 -12.45358,0.47405 -10.260822,-4.484 -7.832217,-8.37136 -4.285398,-14.07506 2.213684,-9.70703 6.558936,-10.45785 10.124366,-6.53529 7.823422,-0.93696 0.200242,-11.08479 -10.454653,1.56073 -7.68504,3.9798 -6.65231,5.36127 -6.950835,6.93354 -7.761568,-5.89982 -4.763902,9.36312 -2.542323,11.22994 -0.344789,11.4183 1.53339,7.69398 4.478838,9.84181 11.751278,14.8318 14.511866,8.15881 -3.993544,11.01254 c 0,0 56.007939,14.91314 73.681109,-30.88224 17.67316,-45.79538 -14.84899,-71.58906 -14.84899,-71.58906 z"
         id="path928" />
    </clipPath>
    <clipPath
       clipPathUnits="userSpaceOnUse"
       id="clipPath930">
      <path
         style="fill:none;stroke:#000000;stroke-width:0.264583px;stroke-linecap:butt;stroke-linejoin:miter;stroke-opacity:1"
         d="m 139.30919,113.84176 -21.62003,23.95742 5.46381,4.83494 3.41201,5.0645 2.11949,11.70696 -0.9955,9.09311 -3.60358,6.85433 -6.63028,6.16506 -10.19308,4.48745 -12.45358,0.47405 -10.260822,-4.484 -7.832217,-8.37136 -4.285398,-14.07506 2.213684,-9.70703 6.558936,-10.45785 10.124366,-6.53529 7.823422,-0.93696 0.200242,-11.08479 -10.454653,1.56073 -7.68504,3.9798 -6.65231,5.36127 -6.950835,6.93354 -7.761568,-5.89982 -4.763902,9.36312 -2.542323,11.22994 -0.344789,11.4183 1.53339,7.69398 4.478838,9.84181 11.751278,14.8318 14.511866,8.15881 -3.993544,11.01254 c 0,0 56.007939,14.91314 73.681109,-30.88224 17.67316,-45.79538 -14.84899,-71.58906 -14.84899,-71.58906 z"
         id="path932" />
    </clipPath>
  </defs>
  <sodipodi:namedview
     id="base"
     pagecolor="#ffffff"
     bordercolor="#666666"
     borderopacity="1.0"
     inkscape:pageopacity="0.0"
     inkscape:pageshadow="2"
     inkscape:zoom="0.98994949"
     inkscape:cx="90.11394"
     inkscape:cy="165.3764"
     inkscape:document-units="mm"
     inkscape:current-layer="g26"
     inkscape:document-rotation="0"
     showgrid="false"
     inkscape:window-width="1870"
     inkscape:window-height="1020"
     inkscape:window-x="50"
     inkscape:window-y="31"
     inkscape:window-maximized="1" />
  <metadata
     id="metadata5">
    <rdf:RDF>
      <cc:Work
         rdf:about="">
        <dc:format>image/svg+xml</dc:format>
        <dc:type
           rdf:resource="http://purl.org/dc/dcmitype/StillImage" />
        <dc:title></dc:title>
      </cc:Work>
    </rdf:RDF>
  </metadata>
  <g
     inkscape:label="Calque 1"
     inkscape:groupmode="layer"
     id="layer1"
     transform="translate(-56.759539,-80.152418)">
    <g
       id="g26"
       transform="translate(4.5642956,-33.689342)">
      <circle
         style="fill:#53c245;stroke-width:0.25199"
         id="path32"
         cx="100.69412"
         cy="159.29477"
         r="26.36441"
         clip-path="none" />
      <path
         style="fill:none;stroke:#ffffff;stroke-width:7.26;stroke-linecap:butt;stroke-linejoin:miter;stroke-miterlimit:4;stroke-dasharray:none;stroke-opacity:1"
         d="m 83.559286,158.17834 13.490944,11.62944 20.39281,-23.78966"
         id="path34"
         sodipodi:nodetypes="ccc"
         clip-path="none" />
      <circle
         style="fill:none;stroke:#ffbd6f;stroke-width:7.80116;stroke-miterlimit:4;stroke-dasharray:none;stroke-opacity:1"
         id="path859"
         cx="100.69412"
         cy="159.29477"
         r="33.138515"
         clip-path="url(#clipPath930)" />
      <circle
         style="fill:none;fill-opacity:1;stroke:#7ae696;stroke-width:7.26001;stroke-miterlimit:4;stroke-dasharray:none;stroke-opacity:1"
         id="path903"
         cx="100.69412"
         cy="159.29477"
         r="43.375336"
         clip-path="url(#clipPath926)" />
      <circle
         style="fill:none;fill-opacity:1;stroke:#a2d2ff;stroke-width:6.706;stroke-miterlimit:4;stroke-dasharray:none;stroke-opacity:1"
         id="path913"
         clip-path="url(#clipPath922)"
         r="52.990719"
         cy="159.29477"
         cx="100.69412" />
    </g>
    <path
       style="fill:#000000;stroke-width:0.264583"
       id="path24"
       d="" />
  </g>
</svg>
